Example OTM splines nested data — otms_splines • throne
…
longitude
Longitude where the OTM was deployed in decimal degrees

elevation
Elevation where the OTM was deployed in meters

spline
A nested column containing the smoothing spline model

    Examples

otms_splines
#> # A tibble: 132 × 9
#>    otm_id  year   doy microhabitat orientation latitude longitude elevation
#>    <chr>  <dbl> <dbl> <chr>        <chr>          <dbl>     <dbl>     <dbl>
#>  1 OTM01   2023   236 outcrop      N               39.9     -120.     1312.
#>  2 OTM01   2023   237 outcrop      N               39.9     -120.     1312.
#>  3 OTM01   2023   238 outcrop      N               39.9     -120.     1312.
#>  4 OTM01   2023   239 outcrop      N               39.9     -120.     1312.
#>  5 OTM02   2023   236 outcrop      W               39.9     -120.     1313.
#>  6 OTM02   2023   237 outcrop      W               39.9     -120.     1313.
#>  7 OTM02   2023   238 outcrop      W               39.9     -120.     1313.
#>  8 OTM02   2023   239 outcrop      W               39.9     -120.     1313.
#>  9 OTM03   2023   236 rock         W               39.9     -120.     1317.
#> 10 OTM03   2023   237 rock         W               39.9     -120.     1317.
#> # ℹ 122 more rows
#> # ℹ 1 more variable: spline <list>
…
