Case study: Thermoregulation in high elevation lizards. • throne
…
This population underwent mark-recapture during the summer of 2022.
All individuals were uniquely identified via toe-clipping and, upon each
capture the we recorded the location of each individual (i.e.,
latitude and longitude) using a Trimble Geo7x
GPS with an accuracy of ~0.5 \(m^2\),
and the time (i.e., year, day of the year or
doy and minute of the day or mod).
Additionally, for most lizards we recorded a body temperature
measurement (tb) by inserting a thermocouple probe into the
animal’s cloaca:

lizard_mr

## # A tibble: 170 × 8
##    id    sex    year   doy   mod latitude longitude    tb
##    <chr> <chr> <int> <dbl> <dbl>    <dbl>     <dbl> <dbl>
##  1 H001  F      2022   173   583     39.7     -119.  30.5
##  2 H004  M      2022   173   657     39.7     -119.  34.8
##  3 H005  M      2022   173   678     39.7     -119.  33.5
##  4 H006  F      2022   173   702     39.7     -119.  35.3
##  5 H007  M      2022   173   723     39.7     -119.  33.2
##  6 H008  F      2022   173   724     39.7     -119.  32.2
##  7 H009  M      2022   173   753     39.7     -119.  33.6
##  8 H010  F      2022   173   795     39.7     -119.  31.9
##  9 H014  M      2022   173   922     39.7     -119.  NA  
## 10 H015  M      2022   173   941     39.7     -119.  NA  
## # ℹ 160 more rows
…
# read the metadata file 
c_flights_metadata <- read.csv("data/case_flight_data.csv")

# read and process flights data
c_flights_data <- rnp_flights_data(path = flight_files_path, metadata = c_flights_metadata, digits = 5)

The outcome will be a flights data tibble storing all of
surface temperature (ir_temp) measurements collected across
all flights:

c_flights_data

## # A tibble: 304,368 × 7
##    longitude latitude ir_temp  year   doy mod_start mod_end
##        <dbl>    <dbl>   <dbl> <dbl> <dbl>     <dbl>   <dbl>
##  1     -119.     39.7    17.8  2022   218       965     988
##  2     -119.     39.7    18.2  2022   218       965     988
##  3     -119.     39.7    13.5  2022   218       965     988
##  4     -119.     39.7    26.8  2022   218       965     988
##  5     -119.     39.7    24.5  2022   218       965     988
##  6     -119.     39.7    18.0  2022   218       965     988
##  7     -119.     39.7    27.3  2022   218       965     988
##  8     -119.     39.7    27.2  2022   218       965     988
##  9     -119.     39.7    22.1  2022   218       965     988
## 10     -119.     39.7    22.7  2022   218       965     988
## # ℹ 304,358 more rows
…
# speficy the path to where the OTM .csv files are stored
c_otms_path <- "data/case_otm_data"

# specify the OTM metadata file 
c_otms_metadata <- read.csv("data/case_otm_metadata.csv")

# read and process OTMs data
c_otms_data <- rnp_otms_data(path = c_otms_path, metadata = c_otms_metadata, rows_skip = 1, date_col = 1, op_temp_col = 2)

The outcome will be an otm data tibble containing all
the observations made by all OTMs:

as_tibble(c_otms_data)

## # A tibble: 262,016 × 7
##    otm_id  year   doy   mod op_temp latitude longitude
##    <chr>  <dbl> <dbl> <dbl>   <dbl>    <dbl>     <dbl>
##  1 H1      2022   164   910    15       39.7     -119.
##  2 H1      2022   164   970    17       39.7     -119.
##  3 H1      2022   164  1030    16       39.7     -119.
##  4 H1      2022   164  1090    15.5     39.7     -119.
##  5 H1      2022   164  1150    13       39.7     -119.
##  6 H1      2022   164  1210     9       39.7     -119.
##  7 H1      2022   164  1270     4       39.7     -119.
##  8 H1      2022   164  1330     2.5     39.7     -119.
##  9 H1      2022   164  1390     2       39.7     -119.
## 10 H1      2022   165    10     1       39.7     -119.
## # ℹ 262,006 more rows
…
c_otms_splines <- gen_otm_splines(otm_data = c_otms_data, knot_p = 1)

Which returns a nested tibble with all
otm_id & doy specific models (in the
column spline):

c_otms_splines

## # A tibble: 11,008 × 6
##    otm_id  year   doy latitude longitude spline    
##    <chr>  <dbl> <dbl>    <dbl>     <dbl> <list>    
##  1 H1      2022   164     39.7     -119. <smth.spl>
##  2 H1      2022   165     39.7     -119. <smth.spl>
##  3 H1      2022   166     39.7     -119. <smth.spl>
##  4 H1      2022   167     39.7     -119. <smth.spl>
##  5 H1      2022   168     39.7     -119. <smth.spl>
##  6 H1      2022   169     39.7     -119. <smth.spl>
##  7 H1      2022   170     39.7     -119. <smth.spl>
##  8 H1      2022   171     39.7     -119. <smth.spl>
##  9 H1      2022   172     39.7     -119. <smth.spl>
## 10 H1      2022   173     39.7     -119. <smth.spl>
## # ℹ 10,998 more rows
…
c_matches <- match_data(flights_data = c_flights_data_corr, otm_splines = c_otms_splines, coverage_per = 1, error_max = 5)

The result will be a matches tibble with the OTM that
best describes the dynamics of each tile in the site. In the figure
below, each tile is colored according to the otm_id that
best represents it’s thermal dynamics.

c_matches

## # A tibble: 98,363 × 4
##    latitude longitude otm_id  error
##       <dbl>     <dbl> <chr>   <dbl>
##  1     39.7     -119. NA     NA    
##  2     39.7     -119. H121    0.842
##  3     39.7     -119. H6      2.17 
##  4     39.7     -119. H16     3.06 
##  5     39.7     -119. H4      1.39 
##  6     39.7     -119. H56     2.44 
##  7     39.7     -119. H78     2.15 
##  8     39.7     -119. H132    2.89 
##  9     39.7     -119. H36     1.86 
## 10     39.7     -119. H6      1.32 
## # ℹ 98,353 more rows
…
