Correcting flight data • throne
…
Inputs

To perform such correction, the function will take 2 inputs:

A flights_data tibble obtained through the
rnp_flights_data function like the one below:

flights_data

## # A tibble: 263,008 × 7
##    longitude latitude ir_temp  year   doy mod_start mod_end
##        <dbl>    <dbl>   <dbl> <dbl> <dbl>     <dbl>   <dbl>
##  1     -120.     39.9    12.5  2023   236       515     519
##  2     -120.     39.9    14.4  2023   236       515     519
##  3     -120.     39.9    14.0  2023   236       515     519
##  4     -120.     39.9    13.7  2023   236       515     519
##  5     -120.     39.9    14.6  2023   236       515     519
##  6     -120.     39.9    15.3  2023   236       515     519
##  7     -120.     39.9    14.5  2023   236       515     519
##  8     -120.     39.9    14.5  2023   236       515     519
##  9     -120.     39.9    13.9  2023   236       515     519
## 10     -120.     39.9    13.9  2023   236       515     519
## # ℹ 262,998 more rows

An otm_splines nested tibble obtained
through the gen_otm_splines function like the one seen
below:

otms_splines

## # A tibble: 132 × 9
##    otm_id  year   doy microhabitat orientation latitude longitude elevation
##    <chr>  <dbl> <dbl> <chr>        <chr>          <dbl>     <dbl>     <dbl>
##  1 OTM01   2023   236 outcrop      N               39.9     -120.     1312.
##  2 OTM01   2023   237 outcrop      N               39.9     -120.     1312.
##  3 OTM01   2023   238 outcrop      N               39.9     -120.     1312.
##  4 OTM01   2023   239 outcrop      N               39.9     -120.     1312.
##  5 OTM02   2023   236 outcrop      W               39.9     -120.     1313.
##  6 OTM02   2023   237 outcrop      W               39.9     -120.     1313.
##  7 OTM02   2023   238 outcrop      W               39.9     -120.     1313.
##  8 OTM02   2023   239 outcrop      W               39.9     -120.     1313.
##  9 OTM03   2023   236 rock         W               39.9     -120.     1317.
## 10 OTM03   2023   237 rock         W               39.9     -120.     1317.
## # ℹ 122 more rows
## # ℹ 1 more variable: spline <list>
…
as_tibble(eval_flights_correction(flights_data, otms_splines))

## # A tibble: 1,114 × 8
##    latitude longitude  year   doy mod_start mod_end ir_temp op_temp
##       <dbl>     <dbl> <dbl> <dbl>     <dbl>   <dbl>   <dbl>   <dbl>
##  1     39.9     -120.  2023   236       515     519    25.4    30.0
##  2     39.9     -120.  2023   236       515     519    20.5    26.8
##  3     39.9     -120.  2023   236       515     519    27.8    30.3
##  4     39.9     -120.  2023   236       515     519    21.3    28.3
##  5     39.9     -120.  2023   236       515     519    28.0    33.8
##  6     39.9     -120.  2023   236       515     519    20.4    19.7
##  7     39.9     -120.  2023   236       515     519    19.1    21.3
##  8     39.9     -120.  2023   236       515     519    22.9    28.5
##  9     39.9     -120.  2023   236       515     519    22.1    28.2
## 10     39.9     -120.  2023   236       515     519    19.9    30.5
## # ℹ 1,104 more rows
…
To further aid in the inspection of the data and inform users on the
best approach to follow, the eval_flights_correction data
also includes the parameter summary, which if set to
TRUE, provides a set of summary statistics of the bias
between IR and operative temperatures for each flight consider. Below is
an example on how to run eval_flights_correction for
diagnostic purposes:

correction_data_summary <- eval_flights_correction(flights_data, otms_splines, summary = TRUE)

## [1] "Summary statistics of bias between op_temp and ir_temp provided"

correction_data_summary

## # A tibble: 34 × 13
##     year   doy mod_start mod_end mean_bias median_bias mode_bias sd_bias
##    <dbl> <dbl>     <dbl>   <dbl>     <dbl>       <dbl>     <dbl>   <dbl>
##  1  2023   236       515     519      5.24        6.32      6.3     3.52
##  2  2023   236       539     543      5.58        6.86      7.2     3.65
##  3  2023   236       559     563      5.69        5.78      8.5     6.48
##  4  2023   236       582     586      4.60        5.94      4.62    3.86
##  5  2023   236       606     610      1.05        2.20      4.1     4.18
##  6  2023   236       638     642      2.89        4.51      3.42    4.42
##  7  2023   236       657     661      2.58        1.93      5.6     3.66
##  8  2023   236       680     684      3.05        2.82      1.87    3.96
##  9  2023   236       700     704      2.05        2.03      6.3     3.99
## 10  2023   236       720     724      3.01        3.33     -4.4     4.31
## # ℹ 24 more rows
## # ℹ 5 more variables: skewness_bias <dbl>, max_bias <dbl>, min_bias <dbl>,
## #   max_abs_bias <dbl>, min_abs_bias <dbl>
…
# perform correction
flights_data_corr <- correct_flights_data(flights_data, otms_splines, 
                                          time_correction = TRUE, 
                                          time_correction_metric = "mean",
                                          flight_specific_correction = TRUE)
# show output of correction
flights_data_corr

## # A tibble: 263,008 × 7
##    longitude latitude  year   doy mod_start mod_end op_temp
##        <dbl>    <dbl> <dbl> <dbl>     <dbl>   <dbl>   <dbl>
##  1     -120.     39.9  2023   236       515     519    7.18
##  2     -120.     39.9  2023   236       515     519   10.0 
##  3     -120.     39.9  2023   236       515     519    9.50
##  4     -120.     39.9  2023   236       515     519    9.10
##  5     -120.     39.9  2023   236       515     519   10.4 
##  6     -120.     39.9  2023   236       515     519   11.4 
##  7     -120.     39.9  2023   236       515     519   10.2 
##  8     -120.     39.9  2023   236       515     519   10.2 
##  9     -120.     39.9  2023   236       515     519    9.40
## 10     -120.     39.9  2023   236       515     519    9.37
## # ℹ 262,998 more rows
…
