A worked out example: Thermoregulation in high elevation lizards • throne
…
An operative temperature model of the type used for this study.

The OTM metadata file we assembled looked like:

# load metadata file 
load(paste(folder, "case_study_data/c_otms_metadata.RData", sep = ""))

# show metadata 
c_otms_metadata

## # A tibble: 150 × 3
##    otm_id latitude longitude
##    <chr>     <dbl>     <dbl>
##  1 H1         39.7     -119.
##  2 H2         39.7     -119.
##  3 H3         39.7     -119.
##  4 H4         39.7     -119.
##  5 H5         39.7     -119.
##  6 H6         39.7     -119.
##  7 H7         39.7     -119.
##  8 H8         39.7     -119.
##  9 H9         39.7     -119.
## 10 H10        39.7     -119.
## # ℹ 140 more rows
…
c_otms_splines <- gen_otm_splines(otm_data = c_otms_data, knot_p = 1)

Which returns a nested tibble with all
otm_id & doy specific models (in the
column spline):

c_otms_splines

## # A tibble: 11,008 × 8
##    otm_id  year   doy latitude longitude       x        y spline    
##    <chr>  <dbl> <dbl>    <dbl>     <dbl>   <dbl>    <dbl> <list>    
##  1 H1      2022   164     39.7     -119. 289252. 4402355. <smth.spl>
##  2 H1      2022   165     39.7     -119. 289252. 4402355. <smth.spl>
##  3 H1      2022   166     39.7     -119. 289252. 4402355. <smth.spl>
##  4 H1      2022   167     39.7     -119. 289252. 4402355. <smth.spl>
##  5 H1      2022   168     39.7     -119. 289252. 4402355. <smth.spl>
##  6 H1      2022   169     39.7     -119. 289252. 4402355. <smth.spl>
##  7 H1      2022   170     39.7     -119. 289252. 4402355. <smth.spl>
##  8 H1      2022   171     39.7     -119. 289252. 4402355. <smth.spl>
##  9 H1      2022   172     39.7     -119. 289252. 4402355. <smth.spl>
## 10 H1      2022   173     39.7     -119. 289252. 4402355. <smth.spl>
## # ℹ 10,998 more rows
…
Ecological application of the method

Once we obtain the prediction of the thermal landscape we can use it
to infer characteristics of the thermal environments experienced by the
organism of interest. As an example, here we integrate the thermal
landscape prediction with the spatial distribution of the home ranges of
10 individual lizards of our population of interest. Below is the
mark-recapture example data set we will use:

lizard_mr

## # A tibble: 36 × 7
##    id    sex    year   doy   mod        y       x
##    <chr> <chr> <int> <dbl> <dbl>    <dbl>   <dbl>
##  1 H005  M      2022   175   720 4402397. 289268.
##  2 H005  M      2022   200   767 4402413. 289264.
##  3 H005  M      2022   173   678 4402417. 289269.
##  4 H005  M      2022   180   720 4402415. 289295.
##  5 H009  M      2022   193   704 4402510. 289395.
##  6 H009  M      2022   216   630 4402492. 289327.
##  7 H009  M      2022   173   753 4402553. 289316.
##  8 H009  M      2022   214   784 4402560. 289324.
##  9 H020  M      2023   166   765 4402683. 289237.
## 10 H020  M      2022   195   774 4402683. 289234.
## # ℹ 26 more rows
…
