Predicting Thermal Landscapes • throne
…
The resulting matches tibble will have an
otm_id column indicating the OTM that best describes a
given tile (i.e., a combination o latitude and
longitude) as well as a column for the matching
error for the user to check if desired. In rows where
error > error_max the otm_id will be
specified as NA.

matches

## # A tibble: 6,386 × 4
##    latitude longitude otm_id error
##       <dbl>     <dbl> <chr>  <dbl>
##  1     39.9     -120. OTM26   3.60
##  2     39.9     -120. OTM26   3.61
##  3     39.9     -120. OTM14   2.96
##  4     39.9     -120. OTM26   2.93
##  5     39.9     -120. OTM26   3.14
##  6     39.9     -120. OTM02   2.45
##  7     39.9     -120. OTM26   2.61
##  8     39.9     -120. OTM26   2.71
##  9     39.9     -120. OTM26   2.50
## 10     39.9     -120. OTM26   2.98
## # ℹ 6,376 more rows
…
# obtain prediction
prediction_237 <- predict_thermal_landscape(matches = matches, otm_splines = otms_splines, 
                                            doy = 237, mod = seq(0,1440, by = 60))

## [1] "0.19 % of predictions were removed due to falling outside of the time when OTMs were recording"

prediction_237

## # A tibble: 152,834 × 5
##    latitude longitude   doy   mod pred_op_temp
##       <dbl>     <dbl> <dbl> <dbl>        <dbl>
##  1     39.9     -120.   237  1380         23.0
##  2     39.9     -120.   237  1320         22.8
##  3     39.9     -120.   237   900         36.0
##  4     39.9     -120.   237  1080         32.1
##  5     39.9     -120.   237  1200         25.9
##  6     39.9     -120.   237  1440         22.0
##  7     39.9     -120.   237    60         21.3
##  8     39.9     -120.   237     0         21.5
##  9     39.9     -120.   237  1260         24.9
## 10     39.9     -120.   237   660         34.6
## # ℹ 152,824 more rows
…
