Reading & processing .TIF drone files • throne
…
In order to have a more easy to work with this data, we can use the
rasterToPoints function from the raster
package to transform our raster object into a data frame.

# transform into points
points <- rasterToPoints(raster)

# transform into data frame
df <- as.data.frame(points)

as_tibble(df)

## # A tibble: 103,579,902 × 3
##          x        y layer
##      <dbl>    <dbl> <dbl>
##  1 289045. 4403039.     0
##  2 289045. 4403039.     0
##  3 289045. 4403039.     0
##  4 289045. 4403039.     0
##  5 289045. 4403039.     0
##  6 289045. 4403039.     0
##  7 289045. 4403039.     0
##  8 289045. 4403039.     0
##  9 289045. 4403039.     0
## 10 289045. 4403039.     0
## # … with 103,579,892 more rows
…
Before moving on to the next steps, it is important to note that the
majority of observations on the layer column are
0. This is not because the temperature recorded by the
drone was exactly 0 but because the drone did not record
data. If these 0 observations are removed that reduces the
size of the final data frame substantially.

# removing layer = 0 observations
df <- df %>% filter(layer != 0) 

as_tibble(df)

## # A tibble: 62,634,505 × 3
##          x        y layer
##      <dbl>    <dbl> <dbl>
##  1 289283. 4403031.  27.0
##  2 289283. 4403031.  26.9
##  3 289283. 4403031.  27.1
##  4 289283. 4403031.  27.0
##  5 289283. 4403031.  27.0
##  6 289283. 4403031.  26.9
##  7 289283. 4403031.  27.2
##  8 289283. 4403031.  27.2
##  9 289283. 4403031.  27.2
## 10 289283. 4403031.  27.1
## # … with 62,634,495 more rows
…
