Reading & processing flight data • throne
…
Then, can use the rasterToPoints function from the
raster package to transform our raster object into a
data.frame:

# transform into points
points <- rasterToPoints(raster)

# transform into data frame
df <- as.data.frame(points)

as_tibble(df)

## # A tibble: 103,579,902 × 3
##          x        y layer
##      <dbl>    <dbl> <dbl>
##  1 289045. 4403039.     0
##  2 289045. 4403039.     0
##  3 289045. 4403039.     0
##  4 289045. 4403039.     0
##  5 289045. 4403039.     0
##  6 289045. 4403039.     0
##  7 289045. 4403039.     0
##  8 289045. 4403039.     0
##  9 289045. 4403039.     0
## 10 289045. 4403039.     0
## # … with 103,579,892 more rows
…
It is important to note that the majority of observations on the
layer column are 0. This is not because the
temperature recorded by the drone was exactly 0 but because
the drone did not record data. If these 0 observations are
removed that reduces the size of the final data.frame
(presented as a tibble below) substantially:

# removing layer = 0 observations
df <- df %>% filter(layer != 0) 

as_tibble(df)

## # A tibble: 62,634,505 × 3
##          x        y layer
##      <dbl>    <dbl> <dbl>
##  1 289283. 4403031.  27.0
##  2 289283. 4403031.  26.9
##  3 289283. 4403031.  27.1
##  4 289283. 4403031.  27.0
##  5 289283. 4403031.  27.0
##  6 289283. 4403031.  26.9
##  7 289283. 4403031.  27.2
##  8 289283. 4403031.  27.2
##  9 289283. 4403031.  27.2
## 10 289283. 4403031.  27.1
## # … with 62,634,495 more rows
…
# define decimal degrees on latitude and longitude measurements
data$long <- as.numeric(format(round(data$long, decimal_places), nsmall = decimal_places))
data$lat <- as.numeric(format(round(data$lat, decimal_places), nsmall = decimal_places))

# get mean temperature for same coordinates 
data <- data %>% group_by(lat, long) %>% summarise(temp = mean(temp, na.rm = T)) %>% ungroup()

## `summarise()` has grouped output by 'lat'. You can override using the `.groups`
## argument.

data

## # A tibble: 105,045 × 3
##      lat  long  temp
##    <dbl> <dbl> <dbl>
##  1  39.7 -119.  33.9
##  2  39.7 -119.  31.9
##  3  39.7 -119.  30.5
##  4  39.7 -119.  33.6
##  5  39.7 -119.  35.0
##  6  39.7 -119.  33.7
##  7  39.7 -119.  33.7
##  8  39.7 -119.  32.7
##  9  39.7 -119.  33.5
## 10  39.7 -119.  28.1
## # … with 105,035 more rows
…
