Reading and processing OTM data and Generating OTM spline models • throne
…
An OTM metadata
data.frame or tibble containing information
related to each specific OTM (identified by a unique
otm_id). The user can include any metadata for the OTM but
we require that an otm_id column is present and we strongly
recommend that the metadata also contains columns for the
latitude and longitude at which the OTM was
deployed. In the example metadata tibble that can be found
in the throne package we also incorporate information on
the microhabitat, orientation and
elevation at which the OTM was deployed.

otms_metadata

## # A tibble: 36 × 6
##    otm_id microhabitat orientation latitude longitude elevation
##    <chr>  <chr>        <chr>          <dbl>     <dbl>     <dbl>
##  1 OTM01  outcrop      N               39.9     -120.     1312.
##  2 OTM21  outcrop      NW              39.9     -120.     1312.
##  3 OTM07  outcrop      E               39.9     -120.     1312.
##  4 OTM16  outcrop      SE              39.9     -120.     1313.
##  5 OTM17  outcrop      Flat            39.9     -120.     1311.
##  6 OTM28  rock         Flat            39.9     -120.     1313.
##  7 OTM13  rock         S               39.9     -120.     1314.
##  8 OTM37  boulder      W               39.9     -120.     1314.
##  9 OTM33  boulder      Flat            39.9     -120.     1314.
## 10 OTM24  rock         E               39.9     -120.     1314.
## # ℹ 26 more rows
…
Merge the processed data for each OTM with its corresponding
metadata and, if more than one file is specified, bind the outputs
together.

The final output is a tibble object that should look
like this:

## # A tibble: 67,584 × 10
##    otm_id  year   doy   mod op_temp microhabitat orientation latitude longitude
##    <chr>  <dbl> <dbl> <dbl>   <dbl> <chr>        <chr>          <dbl>     <dbl>
##  1 OTM01   2023   236   367    13.5 outcrop      N               39.9     -120.
##  2 OTM01   2023   236   369    13.5 outcrop      N               39.9     -120.
##  3 OTM01   2023   236   371    13.5 outcrop      N               39.9     -120.
##  4 OTM01   2023   236   373    13.5 outcrop      N               39.9     -120.
##  5 OTM01   2023   236   375    13.5 outcrop      N               39.9     -120.
##  6 OTM01   2023   236   377    13.5 outcrop      N               39.9     -120.
##  7 OTM01   2023   236   379    13.5 outcrop      N               39.9     -120.
##  8 OTM01   2023   236   381    13.5 outcrop      N               39.9     -120.
##  9 OTM01   2023   236   383    13.5 outcrop      N               39.9     -120.
## 10 OTM01   2023   236   385    13.5 outcrop      N               39.9     -120.
## # ℹ 67,574 more rows
## # ℹ 1 more variable: elevation <dbl>
…
To fit these models the throne package includes the
gen_otm_splines function which takes as input data
generated via the previously presented rnp_otms_data
function and the user-specified parameter knot_l. The
function will return a nested tibble that includes the OTM
identification (otm_id) and all associated metadata,
together with a nested column
containing the spline model generated via the native R
function smooth.spline. The resulting splines
tibble will contain as many rows as combinations of unique
otm_id and doy since there will be a spline
model for each OTM every day it was deployed in the field:

## # A tibble: 132 × 9
##    otm_id  year   doy microhabitat orientation latitude longitude elevation
##    <chr>  <dbl> <dbl> <chr>        <chr>          <dbl>     <dbl>     <dbl>
##  1 OTM01   2023   236 outcrop      N               39.9     -120.     1312.
##  2 OTM01   2023   237 outcrop      N               39.9     -120.     1312.
##  3 OTM01   2023   238 outcrop      N               39.9     -120.     1312.
##  4 OTM01   2023   239 outcrop      N               39.9     -120.     1312.
##  5 OTM02   2023   236 outcrop      W               39.9     -120.     1313.
##  6 OTM02   2023   237 outcrop      W               39.9     -120.     1313.
##  7 OTM02   2023   238 outcrop      W               39.9     -120.     1313.
##  8 OTM02   2023   239 outcrop      W               39.9     -120.     1313.
##  9 OTM03   2023   236 rock         W               39.9     -120.     1317.
## 10 OTM03   2023   237 rock         W               39.9     -120.     1317.
## # ℹ 122 more rows
## # ℹ 1 more variable: spline <list>
…
