Dealing with OTM data • throne
…
OTM cubic smoothing splines model).
This function takes in an OTM data frame that has been generate via the
rnp_otm_data and add_otm_metadata functions
and returns a complex tibble. This tibble will
include the OTM’s identification and all associated metadata, together
with a nested
column containing the spline model generated via the native
R function smooth.spline. We call this a
complex tibble precisely because of the nesting of the
splines column. The resulting splines tibble
will contain as many rows as combinations of unique otm_id
and date since there will be a spline model for each OTM
every day it was deployed in the field:

## # A tibble: 132 × 6
##    otm_id  year  date latitude longitude splines   
##    <chr>  <dbl> <dbl>    <dbl>     <dbl> <list>    
##  1 OTM01   2023   234     39.9     -120. <smth.spl>
##  2 OTM01   2023   235     39.9     -120. <smth.spl>
##  3 OTM01   2023   236     39.9     -120. <smth.spl>
##  4 OTM01   2023   237     39.9     -120. <smth.spl>
##  5 OTM02   2023   234     39.9     -120. <smth.spl>
##  6 OTM02   2023   235     39.9     -120. <smth.spl>
##  7 OTM02   2023   236     39.9     -120. <smth.spl>
##  8 OTM02   2023   237     39.9     -120. <smth.spl>
##  9 OTM03   2023   234     39.9     -120. <smth.spl>
## 10 OTM03   2023   235     39.9     -120. <smth.spl>
## # ℹ 122 more rows
…
