Predicting Thermal Landscapes • throne
…
The resulting matches tibble will have an
otm_id column indicating the OTM that best describes a
given tile (i.e., a combination o latitude and
longitude) as well as a column for the matching
error for the user to check if desired. In rows where
error > error_max the otm_id will be
specified as NA.

matches

## # A tibble: 6,386 × 4
##    latitude longitude otm_id error
##       <dbl>     <dbl> <chr>  <dbl>
##  1     39.9     -120. OTM26   3.60
##  2     39.9     -120. OTM26   3.61
##  3     39.9     -120. OTM14   2.96
##  4     39.9     -120. OTM26   2.93
##  5     39.9     -120. OTM26   3.14
##  6     39.9     -120. OTM02   2.45
##  7     39.9     -120. OTM26   2.61
##  8     39.9     -120. OTM26   2.71
##  9     39.9     -120. OTM26   2.50
## 10     39.9     -120. OTM26   2.98
## # ℹ 6,376 more rows
…
