Dealing with flight data • throne
…
Average the reflected temperature across all observations with
the same averaged latitude and longitude.

Output

The final output is a tibble object with columns for
latitude, longitude and reflected temperature (ref_temp).
The number of rows of this data set will vary depending on the area
covered by the flight and the number of digits specified.
For instance, our study area was ~ 2900 \(m^2\), which processed setting
digits = 5 led to a tibble of 7813
observations each representing a “tile” of approximately 0.4 \(m^2\) at a latitude of approximately
40°.

## # A tibble: 7,813 × 3
##    latitude longitude ref_temp
##       <dbl>     <dbl>    <dbl>
##  1     39.9     -120.     15.6
##  2     39.9     -120.     16.5
##  3     39.9     -120.     18.5
##  4     39.9     -120.     17.0
##  5     39.9     -120.     16.6
##  6     39.9     -120.     16.6
##  7     39.9     -120.     17.6
##  8     39.9     -120.     17.0
##  9     39.9     -120.     17.2
## 10     39.9     -120.     15.5
## # ℹ 7,803 more rows
…
Output

The final output is the same as with the rnp_flight_data
function adding columns for year, date,
minute_start and minute_end.

## # A tibble: 7,813 × 8
##    flight_id    latitude longitude ref_temp  year  date minute_start minute_end
##    <chr>           <dbl>     <dbl>    <dbl> <dbl> <dbl>        <dbl>      <dbl>
##  1 VAL02_GCP_01     39.9     -120.     15.6  2023   235          515        519
##  2 VAL02_GCP_01     39.9     -120.     16.5  2023   235          515        519
##  3 VAL02_GCP_01     39.9     -120.     18.5  2023   235          515        519
##  4 VAL02_GCP_01     39.9     -120.     17.0  2023   235          515        519
##  5 VAL02_GCP_01     39.9     -120.     16.6  2023   235          515        519
##  6 VAL02_GCP_01     39.9     -120.     16.6  2023   235          515        519
##  7 VAL02_GCP_01     39.9     -120.     17.6  2023   235          515        519
##  8 VAL02_GCP_01     39.9     -120.     17.0  2023   235          515        519
##  9 VAL02_GCP_01     39.9     -120.     17.2  2023   235          515        519
## 10 VAL02_GCP_01     39.9     -120.     15.5  2023   235          515        519
## # ℹ 7,803 more rows
…
NOTE: The code above will take a
substantial amount of time to run. The number of flights, the area
covered in each flight and the number of decimal digits at which the
flight data is being processed will determine the run time. Nonetheless,
if everything is implemented correctly, flights will only need to
processed once!.

For the final output, we do not include the flight_id as
it is redundant information given that no two flights can happen at the
same time. After implementing the code above on the 34 flights flown
over 2 days provided in the throne package, we obtain a
data set of 262803 observations.

## # A tibble: 262,803 × 7
##    latitude longitude ref_temp  year  date minute_start minute_end
##       <dbl>     <dbl>    <dbl> <dbl> <dbl>        <dbl>      <dbl>
##  1     39.9     -120.     15.6  2023   235          515        519
##  2     39.9     -120.     16.5  2023   235          515        519
##  3     39.9     -120.     18.5  2023   235          515        519
##  4     39.9     -120.     17.0  2023   235          515        519
##  5     39.9     -120.     16.6  2023   235          515        519
##  6     39.9     -120.     16.6  2023   235          515        519
##  7     39.9     -120.     17.6  2023   235          515        519
##  8     39.9     -120.     17.0  2023   235          515        519
##  9     39.9     -120.     17.2  2023   235          515        519
## 10     39.9     -120.     15.5  2023   235          515        519
## # ℹ 262,793 more rows
…
