Reading and processing flight data • throne
…
A tibble or data.frame with
metadata for each flight. This metadata
file must contain columns for flight_id, the
date when the flight took place (MM/DD/YYYY format), and
the time of the day when the flight started and ended
(time_start & time_end columns in HH:MM
format). Below is an example metadata tibble we include as
part of the documentation of the throne package:

## # A tibble: 34 × 4
##    flight_id date      time_start time_end
##    <chr>     <chr>     <chr>      <chr>   
##  1 flight01  8/24/2023 8:35       8:39    
##  2 flight02  8/24/2023 8:59       9:03    
##  3 flight03  8/24/2023 9:19       9:23    
##  4 flight04  8/24/2023 9:42       9:46    
##  5 flight05  8/24/2023 10:06      10:10   
##  6 flight06  8/24/2023 10:38      10:42   
##  7 flight07  8/24/2023 10:57      11:01   
##  8 flight08  8/24/2023 11:20      11:24   
##  9 flight09  8/24/2023 11:40      11:44   
## 10 flight10  8/24/2023 12:00      12:04   
## # ℹ 24 more rows
…
The final output is a tibble object with columns for
longitude, latitude and IR-measured temperature (ir_temp).
The number of rows of this data set will vary depending on the number of
flights that are processed simultaneously, based on the area covered by
each flight and the number of digits specified. For
instance, our study area was ~ 2900
m2m^2,
which by setting digits = 5 led to a tibble of
~7500 observations per flight each representing a “tile” of
approximately 0.4
m2m^2
at a latitude of approximately 40° (see more details on the choice of
the digits argument below.

## # A tibble: 263,008 × 7
##    longitude latitude ir_temp  year   doy mod_start mod_end
##        <dbl>    <dbl>   <dbl> <dbl> <dbl>     <dbl>   <dbl>
##  1     -120.     39.9    12.5  2023   236       515     519
##  2     -120.     39.9    14.4  2023   236       515     519
##  3     -120.     39.9    14.0  2023   236       515     519
##  4     -120.     39.9    13.7  2023   236       515     519
##  5     -120.     39.9    14.6  2023   236       515     519
##  6     -120.     39.9    15.3  2023   236       515     519
##  7     -120.     39.9    14.5  2023   236       515     519
##  8     -120.     39.9    14.5  2023   236       515     519
##  9     -120.     39.9    13.9  2023   236       515     519
## 10     -120.     39.9    13.9  2023   236       515     519
## # ℹ 262,998 more rows
…
