Reading and processing OTM data and Generating OTM spline models • throne
…
otm_splines_ex <- gen_otm_splines(otm_data = otms_data, knot_p = 0.02) %>% 
  dplyr::select(-c("microhabitat", "orientation", "elevation"))

otm_splines_ex

## # A tibble: 132 × 8
##    otm_id  year   doy latitude longitude       x        y spline    
##    <chr>  <dbl> <dbl>    <dbl>     <dbl>   <dbl>    <dbl> <list>    
##  1 OTM01   2023   236     39.9     -120. 275315. 4416490. <smth.spl>
##  2 OTM01   2023   237     39.9     -120. 275315. 4416490. <smth.spl>
##  3 OTM01   2023   238     39.9     -120. 275315. 4416490. <smth.spl>
##  4 OTM01   2023   239     39.9     -120. 275315. 4416490. <lgl [1]> 
##  5 OTM02   2023   236     39.9     -120. 275285. 4416482. <smth.spl>
##  6 OTM02   2023   237     39.9     -120. 275285. 4416482. <smth.spl>
##  7 OTM02   2023   238     39.9     -120. 275285. 4416482. <smth.spl>
##  8 OTM02   2023   239     39.9     -120. 275285. 4416482. <lgl [1]> 
##  9 OTM03   2023   236     39.9     -120. 275291. 4416498. <smth.spl>
## 10 OTM03   2023   237     39.9     -120. 275291. 4416498. <smth.spl>
## # ℹ 122 more rows
…
